Team 199: Olympics
…
The typical BMI, height, and weight for swimmers increased as their medal rank did (so the typical gold winner was slightly taller and heavier, and had a higher BMI than the other medalists as well as non-medalists). These results are conserved across sex in each category. The age of the swimmer had no meaningful correlation with results; there are slight differences between medal categories but no large effect or clear trend.

olympics_new |> 
  filter(Sport == "Swimming", Year > 1999) |> 
  group_by(Team) |> 
  filter(medalyesno == "yes") |> 
  count(medalyesno) |> 
  arrange(desc(n))

# A tibble: 38 × 3
# Groups:   Team [38]
   Team          medalyesno     n
   <chr>         <chr>      <int>
 1 United States yes          338
 2 Australia     yes          195
 3 Japan         yes           53
 4 Netherlands   yes           48
 5 France        yes           47
 6 China         yes           41
 7 Germany       yes           32
 8 Great Britain yes           24
 9 Russia        yes           24
10 Canada        yes           20
# … with 28 more rows
…
